…
    ## The following object is masked from 'package:graphics':
    ## 
    ##     dotchart

``` r
yrbss_state_a <- readRDS("data/2019 states a-m.rds")
yrbss_state_z <- readRDS("data/2019 states n-z.rds")
yrbss_state = rbind(yrbss_state_a,yrbss_state_z)
yrbss_state = as_tibble(yrbss_state)
yrbss_state
```

    ## # A tibble: 1,536,948 x 312
    ##    sitecode sitename    sitetype sitetypenum  year survyear weight stratum   psu
    ##    <chr>    <chr>       <chr>          <dbl> <dbl>    <dbl>  <dbl>   <dbl> <dbl>
    ##  1 AL       Alabama (A… State              2  1991        1   98.2       8     2
    ##  2 AL       Alabama (A… State              2  1991        1   69.2      15     2
    ##  3 AL       Alabama (A… State              2  1991        1   80.3      15     1
    ##  4 AL       Alabama (A… State              2  1991        1   66.5      20     2
    ##  5 AL       Alabama (A… State              2  1991        1   89.4       5     1
    ##  6 AL       Alabama (A… State              2  1991        1   59.3       1     1
    ##  7 AL       Alabama (A… State              2  1991        1   63.1       1     1
    ##  8 AL       Alabama (A… State              2  1991        1   63.6      15     1
    ##  9 AL       Alabama (A… State              2  1991        1   54.5       5     1
    ## 10 AL       Alabama (A… State              2  1991        1   73.9      12     1
    ## # … with 1,536,938 more rows, and 303 more variables: record <dbl>, age <dbl>,
    ## #   sex <dbl>, grade <dbl>, race4 <dbl>, race7 <dbl>, stheight <dbl>,
    ## #   stweight <dbl>, bmi <dbl>, bmipct <dbl>, qnobese <dbl>, qnowt <dbl>,
    ## #   q66 <chr>, q65 <chr>, sexid <dbl>, sexid2 <dbl>, sexpart <dbl>,
    ## #   sexpart2 <dbl>, q8 <chr>, q9 <chr>, q10 <chr>, q11 <chr>, q12 <chr>,
    ## #   q13 <chr>, q14 <chr>, q15 <chr>, q16 <chr>, q17 <chr>, q18 <chr>,
    ## #   q19 <chr>, q20 <chr>, q21 <chr>, q22 <chr>, q23 <chr>, q24 <chr>,
    ## #   q25 <chr>, q26 <chr>, q27 <chr>, q28 <chr>, q29 <chr>, q30 <chr>,
    ## #   q31 <chr>, q32 <chr>, q33 <chr>, q34 <chr>, q35 <chr>, q36 <chr>,
…
### 01～03

``` r
yrbss_state
```

    ## # A tibble: 1,536,948 x 312
    ##    sitecode sitename    sitetype sitetypenum  year survyear weight stratum   psu
    ##    <chr>    <chr>       <chr>          <dbl> <dbl>    <dbl>  <dbl>   <dbl> <dbl>
    ##  1 AL       Alabama (A… State              2  1991        1   98.2       8     2
    ##  2 AL       Alabama (A… State              2  1991        1   69.2      15     2
    ##  3 AL       Alabama (A… State              2  1991        1   80.3      15     1
    ##  4 AL       Alabama (A… State              2  1991        1   66.5      20     2
    ##  5 AL       Alabama (A… State              2  1991        1   89.4       5     1
    ##  6 AL       Alabama (A… State              2  1991        1   59.3       1     1
    ##  7 AL       Alabama (A… State              2  1991        1   63.1       1     1
    ##  8 AL       Alabama (A… State              2  1991        1   63.6      15     1
    ##  9 AL       Alabama (A… State              2  1991        1   54.5       5     1
    ## 10 AL       Alabama (A… State              2  1991        1   73.9      12     1
    ## # … with 1,536,938 more rows, and 303 more variables: record <dbl>, age <dbl>,
    ## #   sex <dbl>, grade <dbl>, race4 <dbl>, race7 <dbl>, stheight <dbl>,
    ## #   stweight <dbl>, bmi <dbl>, bmipct <dbl>, qnobese <dbl>, qnowt <dbl>,
    ## #   q66 <chr>, q65 <chr>, sexid <dbl>, sexid2 <dbl>, sexpart <dbl>,
    ## #   sexpart2 <dbl>, q8 <chr>, q9 <chr>, q10 <chr>, q11 <chr>, q12 <chr>,
    ## #   q13 <chr>, q14 <chr>, q15 <chr>, q16 <chr>, q17 <chr>, q18 <chr>,
    ## #   q19 <chr>, q20 <chr>, q21 <chr>, q22 <chr>, q23 <chr>, q24 <chr>,
    ## #   q25 <chr>, q26 <chr>, q27 <chr>, q28 <chr>, q29 <chr>, q30 <chr>,
    ## #   q31 <chr>, q32 <chr>, q33 <chr>, q34 <chr>, q35 <chr>, q36 <chr>,
…
### 05～07

``` r
yrbss_state
```

    ## # A tibble: 1,536,948 x 312
    ##    sitecode sitename    sitetype sitetypenum  year survyear weight stratum   psu
    ##    <chr>    <chr>       <chr>          <dbl> <dbl>    <dbl>  <dbl>   <dbl> <dbl>
    ##  1 AL       Alabama (A… State              2  1991        1   98.2       8     2
    ##  2 AL       Alabama (A… State              2  1991        1   69.2      15     2
    ##  3 AL       Alabama (A… State              2  1991        1   80.3      15     1
    ##  4 AL       Alabama (A… State              2  1991        1   66.5      20     2
    ##  5 AL       Alabama (A… State              2  1991        1   89.4       5     1
    ##  6 AL       Alabama (A… State              2  1991        1   59.3       1     1
    ##  7 AL       Alabama (A… State              2  1991        1   63.1       1     1
    ##  8 AL       Alabama (A… State              2  1991        1   63.6      15     1
    ##  9 AL       Alabama (A… State              2  1991        1   54.5       5     1
    ## 10 AL       Alabama (A… State              2  1991        1   73.9      12     1
    ## # … with 1,536,938 more rows, and 303 more variables: record <dbl>, age <dbl>,
    ## #   sex <dbl>, grade <dbl>, race4 <dbl>, race7 <dbl>, stheight <dbl>,
    ## #   stweight <dbl>, bmi <dbl>, bmipct <dbl>, qnobese <dbl>, qnowt <dbl>,
    ## #   q66 <chr>, q65 <chr>, sexid <dbl>, sexid2 <dbl>, sexpart <dbl>,
    ## #   sexpart2 <dbl>, q8 <chr>, q9 <chr>, q10 <chr>, q11 <chr>, q12 <chr>,
    ## #   q13 <chr>, q14 <chr>, q15 <chr>, q16 <chr>, q17 <chr>, q18 <chr>,
    ## #   q19 <chr>, q20 <chr>, q21 <chr>, q22 <chr>, q23 <chr>, q24 <chr>,
    ## #   q25 <chr>, q26 <chr>, q27 <chr>, q28 <chr>, q29 <chr>, q30 <chr>,
    ## #   q31 <chr>, q32 <chr>, q33 <chr>, q34 <chr>, q35 <chr>, q36 <chr>,
…
### 09～11

``` r
yrbss_state
```

    ## # A tibble: 1,536,948 x 312
    ##    sitecode sitename    sitetype sitetypenum  year survyear weight stratum   psu
    ##    <chr>    <chr>       <chr>          <dbl> <dbl>    <dbl>  <dbl>   <dbl> <dbl>
    ##  1 AL       Alabama (A… State              2  1991        1   98.2       8     2
    ##  2 AL       Alabama (A… State              2  1991        1   69.2      15     2
    ##  3 AL       Alabama (A… State              2  1991        1   80.3      15     1
    ##  4 AL       Alabama (A… State              2  1991        1   66.5      20     2
    ##  5 AL       Alabama (A… State              2  1991        1   89.4       5     1
    ##  6 AL       Alabama (A… State              2  1991        1   59.3       1     1
    ##  7 AL       Alabama (A… State              2  1991        1   63.1       1     1
    ##  8 AL       Alabama (A… State              2  1991        1   63.6      15     1
    ##  9 AL       Alabama (A… State              2  1991        1   54.5       5     1
    ## 10 AL       Alabama (A… State              2  1991        1   73.9      12     1
    ## # … with 1,536,938 more rows, and 303 more variables: record <dbl>, age <dbl>,
    ## #   sex <dbl>, grade <dbl>, race4 <dbl>, race7 <dbl>, stheight <dbl>,
    ## #   stweight <dbl>, bmi <dbl>, bmipct <dbl>, qnobese <dbl>, qnowt <dbl>,
    ## #   q66 <chr>, q65 <chr>, sexid <dbl>, sexid2 <dbl>, sexpart <dbl>,
    ## #   sexpart2 <dbl>, q8 <chr>, q9 <chr>, q10 <chr>, q11 <chr>, q12 <chr>,
    ## #   q13 <chr>, q14 <chr>, q15 <chr>, q16 <chr>, q17 <chr>, q18 <chr>,
    ## #   q19 <chr>, q20 <chr>, q21 <chr>, q22 <chr>, q23 <chr>, q24 <chr>,
    ## #   q25 <chr>, q26 <chr>, q27 <chr>, q28 <chr>, q29 <chr>, q30 <chr>,
    ## #   q31 <chr>, q32 <chr>, q33 <chr>, q34 <chr>, q35 <chr>, q36 <chr>,
…
### 13～15

``` r
yrbss_state
```

    ## # A tibble: 1,536,948 x 312
    ##    sitecode sitename    sitetype sitetypenum  year survyear weight stratum   psu
    ##    <chr>    <chr>       <chr>          <dbl> <dbl>    <dbl>  <dbl>   <dbl> <dbl>
    ##  1 AL       Alabama (A… State              2  1991        1   98.2       8     2
    ##  2 AL       Alabama (A… State              2  1991        1   69.2      15     2
    ##  3 AL       Alabama (A… State              2  1991        1   80.3      15     1
    ##  4 AL       Alabama (A… State              2  1991        1   66.5      20     2
    ##  5 AL       Alabama (A… State              2  1991        1   89.4       5     1
    ##  6 AL       Alabama (A… State              2  1991        1   59.3       1     1
    ##  7 AL       Alabama (A… State              2  1991        1   63.1       1     1
    ##  8 AL       Alabama (A… State              2  1991        1   63.6      15     1
    ##  9 AL       Alabama (A… State              2  1991        1   54.5       5     1
    ## 10 AL       Alabama (A… State              2  1991        1   73.9      12     1
    ## # … with 1,536,938 more rows, and 303 more variables: record <dbl>, age <dbl>,
    ## #   sex <dbl>, grade <dbl>, race4 <dbl>, race7 <dbl>, stheight <dbl>,
    ## #   stweight <dbl>, bmi <dbl>, bmipct <dbl>, qnobese <dbl>, qnowt <dbl>,
    ## #   q66 <chr>, q65 <chr>, sexid <dbl>, sexid2 <dbl>, sexpart <dbl>,
    ## #   sexpart2 <dbl>, q8 <chr>, q9 <chr>, q10 <chr>, q11 <chr>, q12 <chr>,
    ## #   q13 <chr>, q14 <chr>, q15 <chr>, q16 <chr>, q17 <chr>, q18 <chr>,
    ## #   q19 <chr>, q20 <chr>, q21 <chr>, q22 <chr>, q23 <chr>, q24 <chr>,
    ## #   q25 <chr>, q26 <chr>, q27 <chr>, q28 <chr>, q29 <chr>, q30 <chr>,
    ## #   q31 <chr>, q32 <chr>, q33 <chr>, q34 <chr>, q35 <chr>, q36 <chr>,
…
### 17～19

``` r
yrbss_state
```

    ## # A tibble: 1,536,948 x 312
    ##    sitecode sitename    sitetype sitetypenum  year survyear weight stratum   psu
    ##    <chr>    <chr>       <chr>          <dbl> <dbl>    <dbl>  <dbl>   <dbl> <dbl>
    ##  1 AL       Alabama (A… State              2  1991        1   98.2       8     2
    ##  2 AL       Alabama (A… State              2  1991        1   69.2      15     2
    ##  3 AL       Alabama (A… State              2  1991        1   80.3      15     1
    ##  4 AL       Alabama (A… State              2  1991        1   66.5      20     2
    ##  5 AL       Alabama (A… State              2  1991        1   89.4       5     1
    ##  6 AL       Alabama (A… State              2  1991        1   59.3       1     1
    ##  7 AL       Alabama (A… State              2  1991        1   63.1       1     1
    ##  8 AL       Alabama (A… State              2  1991        1   63.6      15     1
    ##  9 AL       Alabama (A… State              2  1991        1   54.5       5     1
    ## 10 AL       Alabama (A… State              2  1991        1   73.9      12     1
    ## # … with 1,536,938 more rows, and 303 more variables: record <dbl>, age <dbl>,
    ## #   sex <dbl>, grade <dbl>, race4 <dbl>, race7 <dbl>, stheight <dbl>,
    ## #   stweight <dbl>, bmi <dbl>, bmipct <dbl>, qnobese <dbl>, qnowt <dbl>,
    ## #   q66 <chr>, q65 <chr>, sexid <dbl>, sexid2 <dbl>, sexpart <dbl>,
    ## #   sexpart2 <dbl>, q8 <chr>, q9 <chr>, q10 <chr>, q11 <chr>, q12 <chr>,
    ## #   q13 <chr>, q14 <chr>, q15 <chr>, q16 <chr>, q17 <chr>, q18 <chr>,
    ## #   q19 <chr>, q20 <chr>, q21 <chr>, q22 <chr>, q23 <chr>, q24 <chr>,
    ## #   q25 <chr>, q26 <chr>, q27 <chr>, q28 <chr>, q29 <chr>, q30 <chr>,
    ## #   q31 <chr>, q32 <chr>, q33 <chr>, q34 <chr>, q35 <chr>, q36 <chr>,
…
